<svg version="1.1" viewBox="0 0 24 24" xmlns="http://www.w3.org/2000/svg">
 <path d="m27.519652-.11790395h25.419215v25.41921395h-25.419215z" fill="none"/>
 <path d="m22.108809 5.286936v2.1182679h-3.177402v3.1774021h-2.118268v-3.1774021h-3.177402v-2.1182679h3.177402v-3.1774019h2.118268v3.1774019zm-3.177402 14.827875h-14.8278754v-14.827875h6.3548034v-2.1182679h-6.3548034c-1.165048 0-2.118268.9532205-2.118268 2.1182679v14.827875c0 1.165047.95322 2.118268 2.118268 2.118268h14.8278754c1.165047 0 2.118267-.953221 2.118267-2.118268v-6.354804h-2.118267zm-4.236535-6.354804v4.236536h2.118267v-4.236536zm-4.236537 4.236536h2.118268v-8.4730712h-2.118268zm-2.1182674 0v-6.354803h-2.118269v6.354803z" fill="#073042"/>
</svg>
